%YAML 1.1
%TAG !u! tag:unity3d.com,2011:
--- !u!162 &1
EditorUserSettings:
  m_ObjectHideFlags: 0
  serializedVersion: 4
  m_ConfigSettings:
    RecentlyUsedSceneGuid-0:
      value: 0057035607005e0a0f5a0a2443760c44441641727c7c706179791c30e6b3633a
      flags: 0
    RecentlyUsedSceneGuid-1:
      value: 0704500052045f58585d097349725c44434e4b7e742a7e60757f4b66e1e4676a
      flags: 0
    RecentlyUsedSceneGuid-2:
      value: 5007575554050d0c5f5d5d7a407b0a4445161e2f2a707368297e4e36b1b66568
      flags: 0
    RecentlyUsedSceneGuid-3:
      value: 0604565e51040c0b0b0c597044210e444e4e1c2c28297f357f2c4537b1b2676c
      flags: 0
    RecentlyUsedSceneGuid-4:
      value: 5602505703535b09085e0f7b41770644414e4f7b7a2e7f652f2c4e30e7b5376b
      flags: 0
    RecentlyUsedSceneGuid-5:
      value: 53075602570450585d08087141705c4442161e7b7c7927697c2b4a32e6b3376d
      flags: 0
    RecentlyUsedSceneGuid-6:
      value: 5a5757560101590a5d0c0e24427b5d44434e4c7a7b7a23677f2b4565b7b5353a
      flags: 0
    RecentlyUsedSceneGuid-7:
      value: 56505052500d0b0c0f0c087047720844414f1e7d7b2c25652b7a4e65e7e46d6a
      flags: 0
    RecentlyUsedSceneGuid-8:
      value: 0650010303060d0a5a5d5f76117a594443151e72747823697e711835e1e1656b
      flags: 0
    RecentlyUsedSceneGuid-9:
      value: 5753010400040c5f585a5b7443715d4414161e7b7c7f27687d2f4e63b7b56361
      flags: 0
    vcSharedLogLevel:
      value: 0d5e400f0650
      flags: 0
  m_VCAutomaticAdd: 1
  m_VCDebugCom: 0
  m_VCDebugCmd: 0
  m_VCDebugOut: 0
  m_SemanticMergeMode: 2
  m_DesiredImportWorkerCount: 3
  m_StandbyImportWorkerCount: 2
  m_IdleImportWorkerShutdownDelay: 60000
  m_VCShowFailedCheckout: 1
  m_VCOverwriteFailedCheckoutAssets: 1
  m_VCProjectOverlayIcons: 1
  m_VCHierarchyOverlayIcons: 1
  m_VCOtherOverlayIcons: 1
  m_VCAllowAsyncUpdate: 1
  m_ArtifactGarbageCollection: 1
