%YAML 1.1
%TAG !u! tag:unity3d.com,2011:
--- !u!21 &2100000
Material:
  serializedVersion: 8
  m_ObjectHideFlags: 0
  m_CorrespondingSourceObject: {fileID: 0}
  m_PrefabInstance: {fileID: 0}
  m_PrefabAsset: {fileID: 0}
  m_Name: emission_white
  m_Shader: {fileID: 46, guid: 0000000000000000f000000000000000, type: 0}
  m_Parent: {fileID: 2100000, guid: 46ac422fee2ca584588bef99f7b9ce78, type: 2}
  m_ModifiedSerializedProperties: 2
  m_ValidKeywords:
  - _EMISSION
  m_InvalidKeywords: []
  m_LightmapFlags: 2
  m_EnableInstancingVariants: 0
  m_DoubleSidedGI: 0
  m_CustomRenderQueue: -1
  stringTagMap: {}
  disabledShaderPasses: []
  m_LockedProperties: 
  m_SavedProperties:
    serializedVersion: 3
    m_TexEnvs: []
    m_Ints: []
    m_Floats: []
    m_Colors:
    - _EmissionColor: {r: 1, g: 1, b: 1, a: 1}
  m_BuildTextureStacks: []
